atividades/atividade_5/simulation/qsim/atividade_5.msim.vcd
$comment
	File created using the following command:
		vcd file atividade_5.msim.vcd -direction
$end
$date
	Mon Mar 28 22:43:15 2022
$end
$version
	ModelSim Version 2020.1
$end
$timescale
	1ps
$end

$scope module dataflow_vhd_vec_tst $end
$var wire 1 ! CLOCK_50 $end
$var wire 1 " KEY [3] $end
$var wire 1 # KEY [2] $end
$var wire 1 $ KEY [1] $end
$var wire 1 % KEY [0] $end
$var wire 1 & PC_OUT [8] $end
$var wire 1 ' PC_OUT [7] $end
$var wire 1 ( PC_OUT [6] $end
$var wire 1 ) PC_OUT [5] $end
$var wire 1 * PC_OUT [4] $end
$var wire 1 + PC_OUT [3] $end
$var wire 1 , PC_OUT [2] $end
$var wire 1 - PC_OUT [1] $end
$var wire 1 . PC_OUT [0] $end
$var wire 1 / RESULTADO_ULA [7] $end
$var wire 1 0 RESULTADO_ULA [6] $end
$var wire 1 1 RESULTADO_ULA [5] $end
$var wire 1 2 RESULTADO_ULA [4] $end
$var wire 1 3 RESULTADO_ULA [3] $end
$var wire 1 4 RESULTADO_ULA [2] $end
$var wire 1 5 RESULTADO_ULA [1] $end
$var wire 1 6 RESULTADO_ULA [0] $end
$var wire 1 7 SW [9] $end
$var wire 1 8 SW [8] $end
$var wire 1 9 SW [7] $end
$var wire 1 : SW [6] $end
$var wire 1 ; SW [5] $end
$var wire 1 < SW [4] $end
$var wire 1 = SW [3] $end
$var wire 1 > SW [2] $end
$var wire 1 ? SW [1] $end
$var wire 1 @ SW [0] $end

$scope module i1 $end
$var wire 1 A gnd $end
$var wire 1 B vcc $end
$var wire 1 C unknown $end
$var wire 1 D devoe $end
$var wire 1 E devclrn $end
$var wire 1 F devpor $end
$var wire 1 G ww_devoe $end
$var wire 1 H ww_devclrn $end
$var wire 1 I ww_devpor $end
$var wire 1 J ww_CLOCK_50 $end
$var wire 1 K ww_KEY [3] $end
$var wire 1 L ww_KEY [2] $end
$var wire 1 M ww_KEY [1] $end
$var wire 1 N ww_KEY [0] $end
$var wire 1 O ww_SW [9] $end
$var wire 1 P ww_SW [8] $end
$var wire 1 Q ww_SW [7] $end
$var wire 1 R ww_SW [6] $end
$var wire 1 S ww_SW [5] $end
$var wire 1 T ww_SW [4] $end
$var wire 1 U ww_SW [3] $end
$var wire 1 V ww_SW [2] $end
$var wire 1 W ww_SW [1] $end
$var wire 1 X ww_SW [0] $end
$var wire 1 Y ww_PC_OUT [8] $end
$var wire 1 Z ww_PC_OUT [7] $end
$var wire 1 [ ww_PC_OUT [6] $end
$var wire 1 \ ww_PC_OUT [5] $end
$var wire 1 ] ww_PC_OUT [4] $end
$var wire 1 ^ ww_PC_OUT [3] $end
$var wire 1 _ ww_PC_OUT [2] $end
$var wire 1 ` ww_PC_OUT [1] $end
$var wire 1 a ww_PC_OUT [0] $end
$var wire 1 b ww_RESULTADO_ULA [7] $end
$var wire 1 c ww_RESULTADO_ULA [6] $end
$var wire 1 d ww_RESULTADO_ULA [5] $end
$var wire 1 e ww_RESULTADO_ULA [4] $end
$var wire 1 f ww_RESULTADO_ULA [3] $end
$var wire 1 g ww_RESULTADO_ULA [2] $end
$var wire 1 h ww_RESULTADO_ULA [1] $end
$var wire 1 i ww_RESULTADO_ULA [0] $end
$var wire 1 j \CLOCK_50~input_o\ $end
$var wire 1 k \KEY[1]~input_o\ $end
$var wire 1 l \KEY[2]~input_o\ $end
$var wire 1 m \KEY[3]~input_o\ $end
$var wire 1 n \SW[0]~input_o\ $end
$var wire 1 o \SW[1]~input_o\ $end
$var wire 1 p \SW[2]~input_o\ $end
$var wire 1 q \SW[3]~input_o\ $end
$var wire 1 r \SW[4]~input_o\ $end
$var wire 1 s \SW[5]~input_o\ $end
$var wire 1 t \SW[6]~input_o\ $end
$var wire 1 u \SW[7]~input_o\ $end
$var wire 1 v \SW[8]~input_o\ $end
$var wire 1 w \SW[9]~input_o\ $end
$var wire 1 x \PC_OUT[0]~output_o\ $end
$var wire 1 y \PC_OUT[1]~output_o\ $end
$var wire 1 z \PC_OUT[2]~output_o\ $end
$var wire 1 { \PC_OUT[3]~output_o\ $end
$var wire 1 | \PC_OUT[4]~output_o\ $end
$var wire 1 } \PC_OUT[5]~output_o\ $end
$var wire 1 ~ \PC_OUT[6]~output_o\ $end
$var wire 1 !! \PC_OUT[7]~output_o\ $end
$var wire 1 "! \PC_OUT[8]~output_o\ $end
$var wire 1 #! \RESULTADO_ULA[0]~output_o\ $end
$var wire 1 $! \RESULTADO_ULA[1]~output_o\ $end
$var wire 1 %! \RESULTADO_ULA[2]~output_o\ $end
$var wire 1 &! \RESULTADO_ULA[3]~output_o\ $end
$var wire 1 '! \RESULTADO_ULA[4]~output_o\ $end
$var wire 1 (! \RESULTADO_ULA[5]~output_o\ $end
$var wire 1 )! \RESULTADO_ULA[6]~output_o\ $end
$var wire 1 *! \RESULTADO_ULA[7]~output_o\ $end
$var wire 1 +! \KEY[0]~input_o\ $end
$var wire 1 ,! \incPC|Add0~1_sumout\ $end
$var wire 1 -! \incPC|Add0~2\ $end
$var wire 1 .! \incPC|Add0~5_sumout\ $end
$var wire 1 /! \incPC|Add0~6\ $end
$var wire 1 0! \incPC|Add0~9_sumout\ $end
$var wire 1 1! \incPC|Add0~10\ $end
$var wire 1 2! \incPC|Add0~13_sumout\ $end
$var wire 1 3! \incPC|Add0~14\ $end
$var wire 1 4! \incPC|Add0~17_sumout\ $end
$var wire 1 5! \incPC|Add0~18\ $end
$var wire 1 6! \incPC|Add0~21_sumout\ $end
$var wire 1 7! \incPC|Add0~22\ $end
$var wire 1 8! \incPC|Add0~25_sumout\ $end
$var wire 1 9! \incPC|Add0~26\ $end
$var wire 1 :! \incPC|Add0~29_sumout\ $end
$var wire 1 ;! \incPC|Add0~30\ $end
$var wire 1 <! \incPC|Add0~33_sumout\ $end
$var wire 1 =! \PC|DOUT\ [8] $end
$var wire 1 >! \PC|DOUT\ [7] $end
$var wire 1 ?! \PC|DOUT\ [6] $end
$var wire 1 @! \PC|DOUT\ [5] $end
$var wire 1 A! \PC|DOUT\ [4] $end
$var wire 1 B! \PC|DOUT\ [3] $end
$var wire 1 C! \PC|DOUT\ [2] $end
$var wire 1 D! \PC|DOUT\ [1] $end
$var wire 1 E! \PC|DOUT\ [0] $end
$var wire 1 F! \PC|ALT_INV_DOUT\ [8] $end
$var wire 1 G! \PC|ALT_INV_DOUT\ [7] $end
$var wire 1 H! \PC|ALT_INV_DOUT\ [6] $end
$var wire 1 I! \PC|ALT_INV_DOUT\ [5] $end
$var wire 1 J! \PC|ALT_INV_DOUT\ [4] $end
$var wire 1 K! \PC|ALT_INV_DOUT\ [3] $end
$var wire 1 L! \PC|ALT_INV_DOUT\ [2] $end
$var wire 1 M! \PC|ALT_INV_DOUT\ [1] $end
$var wire 1 N! \PC|ALT_INV_DOUT\ [0] $end
$upscope $end
$upscope $end
$enddefinitions $end
#0
$dumpvars
0!
0A
1B
xC
1D
1E
1F
1G
1H
1I
0J
0j
xk
xl
xm
xn
xo
xp
xq
xr
xs
xt
xu
xv
xw
0x
0y
0z
0{
0|
0}
0~
0!!
0"!
0#!
0$!
0%!
0&!
0'!
0(!
0)!
0*!
0+!
1,!
0-!
0.!
0/!
00!
01!
02!
03!
04!
05!
06!
07!
08!
09!
0:!
0;!
0<!
x"
x#
x$
0%
xK
xL
xM
0N
xO
xP
xQ
xR
xS
xT
xU
xV
xW
xX
0Y
0Z
0[
0\
0]
0^
0_
0`
0a
0b
0c
0d
0e
0f
0g
0h
0i
0=!
0>!
0?!
0@!
0A!
0B!
0C!
0D!
0E!
1F!
1G!
1H!
1I!
1J!
1K!
1L!
1M!
1N!
0&
0'
0(
0)
0*
0+
0,
0-
0.
0/
00
01
02
03
04
05
06
x7
x8
x9
x:
x;
x<
x=
x>
x?
x@
$end
#20000
1%
1N
1+!
1E!
0N!
0,!
1-!
1x
1.!
1a
1.
#40000
0%
0N
0+!
#60000
1%
1N
1+!
0E!
1D!
0M!
1N!
1,!
0-!
0.!
1/!
1y
0x
10!
1.!
0/!
1`
0a
00!
0.
1-
#80000
0%
0N
0+!
#100000
1%
1N
1+!
1E!
0N!
0,!
1-!
1x
0.!
1/!
1a
10!
1.
#120000
0%
0N
0+!
#140000
1%
1N
1+!
0E!
0D!
1C!
0L!
1M!
1N!
1,!
0-!
1.!
0/!
00!
11!
1z
0y
0x
12!
10!
01!
0.!
1_
0`
0a
02!
0.
0-
1,
#160000
0%
0N
0+!
#180000
1%
1N
1+!
1E!
0N!
0,!
1-!
1x
1.!
1a
1.
#200000
0%
0N
0+!
#220000
1%
1N
1+!
0E!
1D!
0M!
1N!
1,!
0-!
0.!
1/!
1y
0x
00!
11!
1.!
0/!
1`
0a
10!
01!
12!
0.
1-
02!
#240000
0%
0N
0+!
#260000
1%
1N
1+!
1E!
0N!
0,!
1-!
1x
0.!
1/!
1a
00!
11!
1.
12!
#280000
0%
0N
0+!
#300000
1%
1N
1+!
0E!
0D!
0C!
1B!
0K!
1L!
1M!
1N!
1,!
0-!
1.!
0/!
10!
01!
02!
13!
1{
0z
0y
0x
14!
12!
03!
00!
0.!
1^
0_
0`
0a
04!
0.
0-
0,
1+
#320000
0%
0N
0+!
#340000
1%
1N
1+!
1E!
0N!
0,!
1-!
1x
1.!
1a
1.
#360000
0%
0N
0+!
#380000
1%
1N
1+!
0E!
1D!
0M!
1N!
1,!
0-!
0.!
1/!
1y
0x
10!
1.!
0/!
1`
0a
00!
0.
1-
#400000
0%
0N
0+!
#420000
1%
1N
1+!
1E!
0N!
0,!
1-!
1x
0.!
1/!
1a
10!
1.
#440000
0%
0N
0+!
#460000
1%
1N
1+!
0E!
0D!
1C!
0L!
1M!
1N!
1,!
0-!
1.!
0/!
00!
11!
1z
0y
0x
02!
13!
10!
01!
0.!
1_
0`
0a
12!
03!
14!
0.
0-
1,
04!
#480000
0%
0N
0+!
#500000
1%
1N
1+!
1E!
0N!
0,!
1-!
1x
1.!
1a
1.
#520000
0%
0N
0+!
#540000
1%
1N
1+!
0E!
1D!
0M!
1N!
1,!
0-!
0.!
1/!
1y
0x
00!
11!
1.!
0/!
1`
0a
10!
01!
02!
13!
0.
1-
14!
12!
03!
04!
#560000
0%
0N
0+!
#580000
1%
1N
1+!
1E!
0N!
0,!
1-!
1x
0.!
1/!
1a
00!
11!
1.
02!
13!
14!
#600000
0%
0N
0+!
#620000
1%
1N
1+!
0E!
0D!
0C!
0B!
1A!
0J!
1K!
1L!
1M!
1N!
1,!
0-!
1.!
0/!
10!
01!
12!
03!
04!
15!
1|
0{
0z
0y
0x
16!
14!
05!
02!
00!
0.!
1]
0^
0_
0`
0a
06!
0.
0-
0,
0+
1*
#640000
0%
0N
0+!
#660000
1%
1N
1+!
1E!
0N!
0,!
1-!
1x
1.!
1a
1.
#680000
0%
0N
0+!
#700000
1%
1N
1+!
0E!
1D!
0M!
1N!
1,!
0-!
0.!
1/!
1y
0x
10!
1.!
0/!
1`
0a
00!
0.
1-
#720000
0%
0N
0+!
#740000
1%
1N
1+!
1E!
0N!
0,!
1-!
1x
0.!
1/!
1a
10!
1.
#760000
0%
0N
0+!
#780000
1%
1N
1+!
0E!
0D!
1C!
0L!
1M!
1N!
1,!
0-!
1.!
0/!
00!
11!
1z
0y
0x
12!
10!
01!
0.!
1_
0`
0a
02!
0.
0-
1,
#800000
0%
0N
0+!
#820000
1%
1N
1+!
1E!
0N!
0,!
1-!
1x
1.!
1a
1.
#840000
0%
0N
0+!
#860000
1%
1N
1+!
0E!
1D!
0M!
1N!
1,!
0-!
0.!
1/!
1y
0x
00!
11!
1.!
0/!
1`
0a
10!
01!
12!
0.
1-
02!
#880000
0%
0N
0+!
#900000
1%
1N
1+!
1E!
0N!
0,!
1-!
1x
0.!
1/!
1a
00!
11!
1.
12!
#920000
0%
0N
0+!
#940000
1%
1N
1+!
0E!
0D!
0C!
1B!
0K!
1L!
1M!
1N!
1,!
0-!
1.!
0/!
10!
01!
02!
13!
1{
0z
0y
0x
04!
15!
12!
03!
00!
0.!
1^
0_
0`
0a
14!
05!
16!
0.
0-
0,
1+
06!
#960000
0%
0N
0+!
#980000
1%
1N
1+!
1E!
0N!
0,!
1-!
1x
1.!
1a
1.
