atividades/atividade_2/simulation/qsim/FD_Aula1.msim.vcd
$comment
	File created using the following command:
		vcd file FD_Aula1.msim.vcd -direction
$end
$date
	Thu Feb 17 15:55:10 2022
$end
$version
	ModelSim Version 2020.1
$end
$timescale
	1ps
$end

$scope module fd_aula1_vhd_vec_tst $end
$var wire 1 ! CLOCK_50 $end
$var wire 1 " KEY [3] $end
$var wire 1 # KEY [2] $end
$var wire 1 $ KEY [1] $end
$var wire 1 % KEY [0] $end
$var wire 1 & LEDR [9] $end
$var wire 1 ' LEDR [8] $end
$var wire 1 ( LEDR [7] $end
$var wire 1 ) LEDR [6] $end
$var wire 1 * LEDR [5] $end
$var wire 1 + LEDR [4] $end
$var wire 1 , LEDR [3] $end
$var wire 1 - LEDR [2] $end
$var wire 1 . LEDR [1] $end
$var wire 1 / LEDR [0] $end
$var wire 1 0 SW [9] $end
$var wire 1 1 SW [8] $end
$var wire 1 2 SW [7] $end
$var wire 1 3 SW [6] $end
$var wire 1 4 SW [5] $end
$var wire 1 5 SW [4] $end
$var wire 1 6 SW [3] $end
$var wire 1 7 SW [2] $end
$var wire 1 8 SW [1] $end
$var wire 1 9 SW [0] $end

$scope module i1 $end
$var wire 1 : gnd $end
$var wire 1 ; vcc $end
$var wire 1 < unknown $end
$var wire 1 = devoe $end
$var wire 1 > devclrn $end
$var wire 1 ? devpor $end
$var wire 1 @ ww_devoe $end
$var wire 1 A ww_devclrn $end
$var wire 1 B ww_devpor $end
$var wire 1 C ww_CLOCK_50 $end
$var wire 1 D ww_KEY [3] $end
$var wire 1 E ww_KEY [2] $end
$var wire 1 F ww_KEY [1] $end
$var wire 1 G ww_KEY [0] $end
$var wire 1 H ww_SW [9] $end
$var wire 1 I ww_SW [8] $end
$var wire 1 J ww_SW [7] $end
$var wire 1 K ww_SW [6] $end
$var wire 1 L ww_SW [5] $end
$var wire 1 M ww_SW [4] $end
$var wire 1 N ww_SW [3] $end
$var wire 1 O ww_SW [2] $end
$var wire 1 P ww_SW [1] $end
$var wire 1 Q ww_SW [0] $end
$var wire 1 R ww_LEDR [9] $end
$var wire 1 S ww_LEDR [8] $end
$var wire 1 T ww_LEDR [7] $end
$var wire 1 U ww_LEDR [6] $end
$var wire 1 V ww_LEDR [5] $end
$var wire 1 W ww_LEDR [4] $end
$var wire 1 X ww_LEDR [3] $end
$var wire 1 Y ww_LEDR [2] $end
$var wire 1 Z ww_LEDR [1] $end
$var wire 1 [ ww_LEDR [0] $end
$var wire 1 \ \CLOCK_50~input_o\ $end
$var wire 1 ] \KEY[3]~input_o\ $end
$var wire 1 ^ \LEDR[0]~output_o\ $end
$var wire 1 _ \LEDR[1]~output_o\ $end
$var wire 1 ` \LEDR[2]~output_o\ $end
$var wire 1 a \LEDR[3]~output_o\ $end
$var wire 1 b \LEDR[4]~output_o\ $end
$var wire 1 c \LEDR[5]~output_o\ $end
$var wire 1 d \LEDR[6]~output_o\ $end
$var wire 1 e \LEDR[7]~output_o\ $end
$var wire 1 f \LEDR[8]~output_o\ $end
$var wire 1 g \LEDR[9]~output_o\ $end
$var wire 1 h \KEY[0]~input_o\ $end
$var wire 1 i \SW[4]~input_o\ $end
$var wire 1 j \SW[6]~input_o\ $end
$var wire 1 k \ULA1|Add0~18_cout\ $end
$var wire 1 l \ULA1|Add0~1_sumout\ $end
$var wire 1 m \SW[0]~input_o\ $end
$var wire 1 n \KEY[1]~input_o\ $end
$var wire 1 o \SW[5]~input_o\ $end
$var wire 1 p \KEY[2]~input_o\ $end
$var wire 1 q \SW[7]~input_o\ $end
$var wire 1 r \ULA1|Add0~2\ $end
$var wire 1 s \ULA1|Add0~5_sumout\ $end
$var wire 1 t \SW[1]~input_o\ $end
$var wire 1 u \SW[8]~input_o\ $end
$var wire 1 v \ULA1|Add0~6\ $end
$var wire 1 w \ULA1|Add0~9_sumout\ $end
$var wire 1 x \SW[2]~input_o\ $end
$var wire 1 y \SW[9]~input_o\ $end
$var wire 1 z \ULA1|Add0~10\ $end
$var wire 1 { \ULA1|Add0~13_sumout\ $end
$var wire 1 | \SW[3]~input_o\ $end
$var wire 1 } \REG1|DOUT\ [3] $end
$var wire 1 ~ \REG1|DOUT\ [2] $end
$var wire 1 !! \REG1|DOUT\ [1] $end
$var wire 1 "! \REG1|DOUT\ [0] $end
$var wire 1 #! \ALT_INV_SW[9]~input_o\ $end
$var wire 1 $! \ALT_INV_SW[8]~input_o\ $end
$var wire 1 %! \ALT_INV_SW[7]~input_o\ $end
$var wire 1 &! \ALT_INV_SW[6]~input_o\ $end
$var wire 1 '! \ALT_INV_SW[5]~input_o\ $end
$var wire 1 (! \ALT_INV_KEY[1]~input_o\ $end
$var wire 1 )! \ALT_INV_SW[4]~input_o\ $end
$var wire 1 *! \REG1|ALT_INV_DOUT\ [3] $end
$var wire 1 +! \REG1|ALT_INV_DOUT\ [2] $end
$var wire 1 ,! \REG1|ALT_INV_DOUT\ [1] $end
$var wire 1 -! \REG1|ALT_INV_DOUT\ [0] $end
$upscope $end
$upscope $end
$enddefinitions $end
#0
$dumpvars
0!
0:
1;
x<
1=
1>
1?
1@
1A
1B
0C
0\
0]
0^
0_
0`
0a
0b
0c
xd
1e
0f
xg
0h
xi
0j
xk
xl
0m
0n
xo
0p
0q
xr
xs
1t
1u
xv
xw
0x
0y
xz
x{
0|
1#!
0$!
1%!
1&!
x'!
1(!
x)!
0"
0#
0$
0%
00
11
02
03
x4
x5
06
07
18
09
x&
0'
1(
x)
0*
0+
0,
0-
0.
0/
0D
0E
0F
0G
0H
1I
0J
0K
xL
xM
0N
0O
1P
0Q
xR
0S
1T
xU
0V
0W
0X
0Y
0Z
0[
0}
0~
0!!
0"!
1*!
1+!
1,!
1-!
$end
#80000
1%
1G
1h
#160000
0%
0G
0h
#240000
1%
1G
1h
#320000
0%
0G
0h
#400000
1%
1G
1h
#480000
0%
0G
0h
#560000
1%
1G
1h
#640000
0%
0G
0h
#720000
1%
1G
1h
#800000
0%
0G
0h
#880000
1%
1G
1h
#960000
0%
0G
0h
